{
  "data": {
    "content": [
      {
        "id": "402880f756169b84015616aa5fab0001",
        "status": {
          "id": "772507d2-5091-11e6-a022-902b340998a6",
          "createUserId": "34ff5c2e-6625-4d6d-ad39-d1745755b3a8",
          "createDate": 1469249638000,
          "updateUserId": "34ff5c2e-6625-4d6d-ad39-d1745755b3a8",
          "updateDate": 1469249638000,
          "dictTypeId": "34ff5c2e-6625-4d6d-ad39-d1745755b3a1",
          "dictDetailCode": "SM00001",
          "valueNameCn": "正常",
          "valueNameEn": "",
          "comments": ""
        },
        "createUserId": "fc5db3b3-4063-4a12-a511-880ba19e4b58",
        "createDate": 1469259079000,
        "updateUserId": "fc5db3b3-4063-4a12-a511-880ba19e4b58",
        "updateDate": 1469259079000,
        "petCode": "CP01",
        "gestId": "01",
        "gestCode": "vip01",
        "gestName": "小新1",
        "petName": "二哈",
        "petSex": {
          "id": "73351da0-5091-11e6-a022-902b340998a6",
          "status": null,
          "createUserId": "34ff5c2e-6625-4d6d-ad39-d1745755b3a8",
          "createDate": 1469249631000,
          "updateUserId": "34ff5c2e-6625-4d6d-ad39-d1745755b3a8",
          "updateDate": 1469249631000,
          "dictTypeId": "f5ca1dcb-41e4-4553-b41e-f3eeda6d56f2",
          "dictDetailCode": "DM00003",
          "valueNameCn": "雄性",
          "valueNameEn": null,
          "sort": 0,
          "comments": null
        },
        "petBirthday": 1469203200000,
        "age": 2,
        "petSkinColor": {
          "id": "73351da0-5091-11e6-a022-902b340998a6",
          "status": null,
          "createUserId": "34ff5c2e-6625-4d6d-ad39-d1745755b3a8",
          "createDate": 1469249631000,
          "updateUserId": "34ff5c2e-6625-4d6d-ad39-d1745755b3a8",
          "updateDate": 1469249631000,
          "dictTypeId": "f5ca1dcb-41e4-4553-b41e-f3eeda6d56f2",
          "dictDetailCode": "DM00003",
          "valueNameCn": "雄性",
          "valueNameEn": null,
          "sort": 0,
          "comments": null
        },
        "petRace": {
          "id": "1aa38af8-efd0-4fbb-8c78-d12d17cc9624",
          "status": null,
          "createUserId": "fc5db3b3-4063-4a12-a511-880ba19e4b58",
          "createDate": 1469249488000,
          "updateUserId": "fc5db3b3-4063-4a12-a511-880ba19e4b58",
          "updateDate": 1469249488000,
          "type": "美国短毛猫",
          "petRace": {
            "id": "326209c2-59aa-474a-b714-49f3cba8675f",
            "status": null,
            "createUserId": "fc5db3b3-4063-4a12-a511-880ba19e4b58",
            "createDate": 1469249487000,
            "updateUserId": "fc5db3b3-4063-4a12-a511-880ba19e4b58",
            "updateDate": 1469249487000,
            "name": "猫"
          }
        },
        "petBreed": null,
        "petWeight": 2.5,
        "petHeight": 50,
        "petSwidth": 20,
        "petBodyLong": 10,
        "sickFileCode": null,
        "birthStatus": null,
        "petHead": "头像",
        "petHeadId": "01",
        "dogBandId": "110",
        "mdicTypeName": "院长",
        "remark": null
      }
    ],
    "last": false,
    "firstPage": true,
    "totalElements": 2,
    "totalPages": 2,
    "lastPage": false,
    "size": 1,
    "number": 0,
    "sort": [
      {
        "direction": "DESC",
        "property": "createDate",
        "ignoreCase": false,
        "nullHandling": "NATIVE",
        "ascending": false
      }
    ],
    "numberOfElements": 1,
    "first": true
  },
  "message": "OK",
  "code": 0
}